{
    "border": "pixel",
    "current_border_width": 3,
    "floating": "auto_off",
    "geometry": {
       "height": 1030,
       "width": 1902,
       "x": 9,
       "y": 41
    },
    "percent": 0.8,
    "swallows": [
       {
       "class": "^Google\\-chrome$",
       "instance": "^google\\-chrome$",
       "window_role": "^browser$"
       }
    ],
    "type": "con"
}

{
    "border": "pixel",
    "current_border_width": 3,
    "floating": "auto_off",
    "geometry": {
       "height": 1030,
       "width": 945,
       "x": 966,
       "y": 41
    },
    "percent": 0.2,
    "swallows": [
       {
       "class": "^TelegramDesktop$"
       }
    ],
    "type": "con"
}

